q,0.0,0.0,0.0,0.0,0.0,0.0,0.0,0.0,g,0.0,0.0,0.0,0.0,0.0,0.0,0.0,0.0
q,0.0,0.00010632812261219897,0.0,0.0,0.0,7.706249016928654e-05,0.0,0.0,g,0.0,0.00031106394161688113,0.0,0.0,0.0,0.00010647456007427993,0.0,0.0
q,0.0,0.00034624182632169115,0.0,0.0,0.0,7.226170971972744e-05,0.0,0.0,g,0.0,0.0010129337808499604,0.0,0.0,0.0,0.00041123115379579226,0.0,0.0
q,0.0,0.0006416873735765496,0.0,0.0,0.0,6.296109645920764e-05,0.0,0.0,g,0.0,0.0018772625605223017,0.0,0.0,0.0,0.00011206133991040852,0.0,0.0
q,0.0,0.0010566834395258915,0.0,0.0,0.0,0.0003990828024294426,0.0,0.0,g,0.0,0.0030913375282570496,0.0,0.0,0.0,0.00041619011356290115,0.0,0.0
q,0.0,0.00212503432574772,0.0,0.0,0.0,0.0010482410967940954,0.0,0.0,g,0.0,0.006216808283629185,0.0,0.0,0.0,0.0012442409460693606,0.0,0.0
q,0.0,0.0033551863337508495,0.0,0.0,0.0,0.002078606027500863,0.0,0.0,g,0.0,0.009815629771270803,0.0,0.0,0.0,0.001305795861877377,0.0,0.0
q,0.0,0.0037910675432669613,0.0,0.0,0.0,0.001221494230075993,0.0,0.0,g,0.0,0.011090804426647076,0.0,0.0,0.0,0.005495664891963514,0.0,0.0
q,0.0,0.0047860478411053085,0.0,0.0,0.0,0.0032121806238345173,0.0,0.0,g,0.0,0.014001628822611929,0.0,0.0,0.0,0.0036721333833124627,0.0,0.0
q,0.0,0.0055472800718462875,0.0,0.0,0.0,0.003958475294995864,0.0,0.0,g,0.0,0.016228621008336254,0.0,0.0,0.0,0.0036649231203052003,0.0,0.0
q,0.0,0.005494873091818432,0.0,0.0,0.0,0.00560984911498226,0.0,0.0,g,0.0,0.016075303886062237,0.0,0.0,0.0,0.0010834668728559142,0.0,0.0
q,0.0,0.0051175482877502745,0.0,0.0,0.0,0.00439651928217278,0.0,0.0,g,0.0,0.014971436555954867,0.0,0.0,0.0,0.0002696884812127369,0.0,0.0
q,0.0,0.00402001474007934,0.0,0.0,0.0,0.002141186259961271,0.0,0.0,g,0.0,0.01176059164486346,0.0,0.0,0.0,0.0016059565942530482,0.0,0.0
q,0.0,0.0037937867448630536,0.0,0.0,0.0,0.0029374876112613704,0.0,0.0,g,0.0,0.011098759476973872,0.0,0.0,0.0,0.0012828824120593198,0.0,0.0
q,0.0,0.0034531320908845822,0.0,0.0,0.0,0.003239840699295754,0.0,0.0,g,0.0,0.010102171022354405,0.0,0.0,0.0,0.003608771805332967,0.0,0.0
q,0.0,0.0018295272299915233,0.0,0.0,0.0,0.0015970018770343555,0.0,0.0,g,0.0,0.0053522994432263805,0.0,0.0,0.0,0.0029864546480843704,0.0,0.0
q,0.0,0.0013742167672537997,0.0,0.0,0.0,0.0009047222910017333,0.0,0.0,g,0.0,0.00402028432136484,0.0,0.0,0.0,0.0017175024824535035,0.0,0.0
q,0.0,0.0015372406840636968,0.0,0.0,0.0,0.0007673637550466988,0.0,0.0,g,0.0,0.004497212352208249,0.0,0.0,0.0,0.002465765169569211,0.0,0.0
q,0.0,0.0003223705435462104,0.0,0.0,0.0,0.000385211090660309,0.0,0.0,g,0.0,0.0009430981143380424,0.0,0.0,0.0,0.000524506564640613,0.0,0.0
q,0.0,2.1935133221601122e-05,0.0,0.0,0.0,0.0014064463746881195,0.0,0.0,g,0.0,6.417144243845568e-05,0.0,0.0,0.0,0.00042545676879296446,0.0,0.0
q,0.0,0.00016199222912804956,0.0,0.0,0.0,0.00013049341025207079,0.0,0.0,g,0.0,0.0004739098186437099,0.0,0.0,0.0,0.0019638741895128473,0.0,0.0
q,0.0,0.0004342801232936691,0.0,0.0,0.0,0.0007020519164136763,0.0,0.0,g,0.0,0.0012704906622896597,0.0,0.0,0.0,0.003572976552587953,0.0,0.0
q,0.0,0.0021553153172448394,0.0,0.0,0.0,0.001055939532141649,0.0,0.0,g,0.0,0.006305395614428902,0.0,0.0,0.0,0.0005127823943661611,0.0,0.0
q,0.0,0.001640196477735275,0.0,0.0,0.0,0.001068863595682274,0.0,0.0,g,0.0,0.0047984105131930535,0.0,0.0,0.0,0.00015634945948955759,0.0,0.0
q,0.0,0.000792370541267174,0.0,0.0,0.0,0.0007361053934584576,0.0,0.0,g,0.0,0.0023180876115590082,0.0,0.0,0.0,0.0015469936428361558,0.0,0.0
q,0.0,0.002279215123640446,0.0,0.0,0.0,0.0026696035765340215,0.0,0.0,g,0.0,0.0066678656853390375,0.0,0.0,0.0,0.002677779145433948,0.0,0.0
q,0.0,0.0022528939965517254,0.0,0.0,0.0,0.001631120478502654,0.0,0.0,g,0.0,0.006590862975812413,0.0,0.0,0.0,3.962459731367968e-05,0.0,0.0
q,0.0,0.001845793472175103,0.0,0.0,0.0,0.002066419886375022,0.0,0.0,g,0.0,0.0053998864906095595,0.0,0.0,0.0,0.000201584551936973,0.0,0.0
q,0.0,0.0014904194846433738,0.0,0.0,0.0,0.00020528485895189227,0.0,0.0,g,0.0,0.004360236484628542,0.0,0.0,0.0,0.0023244109408526586,0.0,0.0
q,0.0,0.00231855035181789,0.0,0.0,0.0,0.0031916181331758248,0.0,0.0,g,0.0,0.006782941272311445,0.0,0.0,0.0,0.0028741790982648174,0.0,0.0
q,0.0,0.001922643739847546,0.0,0.0,0.0,0.0018692316591859045,0.0,0.0,g,0.0,0.0056247126851215745,0.0,0.0,0.0,0.00041271843834397165,0.0,0.0
q,0.0,0.001932880264758222,0.0,0.0,0.0,0.0015278224484140176,0.0,0.0,g,0.0,0.005654659736841726,0.0,0.0,0.0,0.0006928192712340742,0.0,0.0
q,0.0,0.002060042448817509,0.0,0.0,0.0,0.0011870143473812628,0.0,0.0,g,0.0,0.006026673924869476,0.0,0.0,0.0,0.00016061597722680232,0.0,0.0
q,0.0,0.0017681142080927404,0.0,0.0,0.0,1.9389594217317577e-05,0.0,0.0,g,0.0,0.005172635059156355,0.0,0.0,0.0,0.0032162925163275423,0.0,0.0
q,0.0,0.002143560567379207,0.0,0.0,0.0,0.0015358285821115807,0.0,0.0,g,0.0,0.006271006981054247,0.0,0.0,0.0,0.0006108097063565292,0.0,0.0
q,0.0,0.002210534232625171,0.0,0.0,0.0,0.0014232394145778336,0.0,0.0,g,0.0,0.006466939080522625,0.0,0.0,0.0,0.0003643699590337862,0.0,0.0
q,0.0,0.001941355188639071,0.0,0.0,0.0,0.0002096467942046456,0.0,0.0,g,0.0,0.005679453207868147,0.0,0.0,0.0,0.0018298121739515755,0.0,0.0
q,0.0,0.0018819090000655554,0.0,0.0,0.0,0.0019373191456499824,0.0,0.0,g,0.0,0.005505542813538891,0.0,0.0,0.0,0.00157736709814333,0.0,0.0
q,0.0,0.0017545781165600799,0.0,0.0,0.0,0.0004107306524867198,0.0,0.0,g,0.0,0.0051330350936647055,0.0,0.0,0.0,0.0011573406386735027,0.0,0.0
q,0.0,0.0016819209316866254,0.0,0.0,0.0,0.0006941942609258308,0.0,0.0,g,0.0,0.0049204758030624105,0.0,0.0,0.0,0.0006010144813697431,0.0,0.0
q,0.0,0.0017031176917314105,0.0,0.0,0.0,0.0009067696502325579,0.0,0.0,g,0.0,0.004982487127696495,0.0,0.0,0.0,0.00016720835879728904,0.0,0.0
q,0.0,0.0013219654080981664,0.0,0.0,0.0,0.0005287570563732753,0.0,0.0,g,0.0,0.0038674224694437032,0.0,0.0,0.0,0.000657554210480648,0.0,0.0
q,0.0,0.0017935516840631095,0.0,0.0,0.0,0.0020898866335092234,0.0,0.0,g,0.0,0.005247052638868441,0.0,0.0,0.0,0.0027025704744503623,0.0,0.0
q,0.0,0.0008857899196793744,0.0,0.0,0.0,0.000575468892606379,0.0,0.0,g,0.0,0.0025913868983176627,0.0,0.0,0.0,0.0005824255033529263,0.0,0.0
q,0.0,0.0010361699592314208,0.0,0.0,0.0,0.0001901651008528499,0.0,0.0,g,0.0,0.003031325145080189,0.0,0.0,0.0,0.0007540084277012369,0.0,0.0
q,0.0,0.0008276010829132686,0.0,0.0,0.0,0.0004831230212486511,0.0,0.0,g,0.0,0.002421154898749848,0.0,0.0,0.0,0.0002164952604882869,0.0,0.0
q,0.0,0.000770812354299058,0.0,0.0,0.0,0.0005173515430489956,0.0,0.0,g,0.0,0.0022550189289972794,0.0,0.0,0.0,0.0006366810851344369,0.0,0.0
q,0.0,0.0008178398826973524,0.0,0.0,0.0,0.00042492789144008025,0.0,0.0,g,0.0,0.0023925984139791323,0.0,0.0,0.0,7.752292807830258e-05,0.0,0.0
q,0.0,0.0007357858448064978,0.0,0.0,0.0,0.0006000107481862233,0.0,0.0,g,0.0,0.002152548539826815,0.0,0.0,0.0,0.00010049903968823402,0.0,0.0
q,0.0,0.0005206385092555566,0.0,0.0,0.0,0.0001533468810553959,0.0,0.0,g,0.0,0.0015231329479712804,0.0,0.0,0.0,0.000121488441861539,0.0,0.0
q,0.0,0.000533802035490321,0.0,0.0,0.0,0.00013450290564377037,0.0,0.0,g,0.0,0.0015616429701137474,0.0,0.0,0.0,0.0002627553745282174,0.0,0.0
q,0.0,0.0005892105183306298,0.0,0.0,0.0,0.00047134019018430125,0.0,0.0,g,0.0,0.0017237410176282313,0.0,0.0,0.0,0.0002210212311729541,0.0,0.0
q,0.0,0.0005930432577219025,0.0,0.0,0.0,0.0005735753268682134,0.0,0.0,g,0.0,0.0017349537334455495,0.0,0.0,0.0,0.0010867270595586944,0.0,0.0
q,0.0,0.00028457378788149305,0.0,0.0,0.0,0.0002791930066232723,0.0,0.0,g,0.0,0.0008325233434443007,0.0,0.0,0.0,1.3572294160047339e-05,0.0,0.0
q,0.0,0.0003291183989811219,0.0,0.0,0.0,0.00017357610058569986,0.0,0.0,g,0.0,0.0009628390300757499,0.0,0.0,0.0,0.0001540068385529423,0.0,0.0
q,0.0,0.0002436682243853994,0.0,0.0,0.0,0.0004135704454302518,0.0,0.0,g,0.0,0.0007128537254490446,0.0,0.0,0.0,0.0006022064853325843,0.0,0.0
q,0.0,0.0003038586727134051,0.0,0.0,0.0,7.311185288041928e-05,0.0,0.0,g,0.0,0.0008889414588221217,0.0,0.0,0.0,1.6076459803519112e-05,0.0,0.0
q,0.0,0.00028601143270237694,0.0,0.0,0.0,0.000233911932807626,0.0,0.0,g,0.0,0.0008367291871443744,0.0,0.0,0.0,0.00035678592919103204,0.0,0.0
q,0.0,0.00016680287617820862,0.0,0.0,0.0,0.00019972526198802173,0.0,0.0,g,0.0,0.000487983412688161,0.0,0.0,0.0,0.0002613666972729928,0.0,0.0
q,0.0,0.00026440456765350535,0.0,0.0,0.0,8.132969644061323e-05,0.0,0.0,g,0.0,0.0007735180963909019,0.0,0.0,0.0,0.0001155729409653384,0.0,0.0
