q,0.0,2.034531509222272e-06,0.0,0.0,0.0,8.683929415005094e-07,0.0,0.0,g,0.0,9.125139940903925e-06,0.0,0.0,0.0,2.801088318797945e-06,0.0,0.0
q,0.0,6.199672787126249e-06,0.0,0.0,0.0,1.8340992086112008e-06,0.0,0.0,g,0.0,2.7806343383674937e-05,0.0,0.0,0.0,3.866457699387075e-06,0.0,0.0
q,0.0,6.781771697407572e-06,0.0,0.0,0.0,6.03733760534607e-06,0.0,0.0,g,0.0,3.041713313634641e-05,0.0,0.0,0.0,1.8500928181395925e-05,0.0,0.0
q,0.0,4.274100531972746e-05,0.0,0.0,0.0,3.875997602700012e-05,0.0,0.0,g,0.0,0.00019169899949424824,0.0,0.0,0.0,0.00011873861296233951,0.0,0.0
q,0.0,7.674031271270005e-05,0.0,0.0,0.0,1.9774430317789557e-05,0.0,0.0,g,0.0,0.000344190340350051,0.0,0.0,0.0,7.237945078178838e-05,0.0,0.0
q,0.0,0.00012780449923664906,0.0,0.0,0.0,2.4437091306198073e-05,0.0,0.0,g,0.0,0.0005732198962391006,0.0,0.0,0.0,3.951533482599934e-05,0.0,0.0
q,0.0,0.0004696174885046603,0.0,0.0,0.0,0.000139229339560446,0.0,0.0,g,0.0,0.002106295863139023,0.0,0.0,0.0,0.00050149813818127,0.0,0.0
q,0.0,0.0043468209295654345,0.0,0.0,0.0,0.001352319884126138,0.0,0.0,g,0.0,0.019496060444646197,0.0,0.0,0.0,0.0023624674971411963,0.0,0.0
q,0.0,0.002462349936016975,0.0,0.0,0.0,0.006510651397758617,0.0,0.0,g,0.0,0.011043961544847145,0.0,0.0,0.0,0.003929523822925265,0.0,0.0
q,0.0,0.003020922042917741,0.0,0.0,0.0,0.004184525826672086,0.0,0.0,g,0.0,0.013549230506989467,0.0,0.0,0.0,0.002147778205517868,0.0,0.0
q,0.0,0.0021568405683854708,0.0,0.0,0.0,0.003582205716294678,0.0,0.0,g,0.0,0.009673712069595714,0.0,0.0,0.0,0.0012331492725949772,0.0,0.0
q,0.0,0.0022116931779228924,0.0,0.0,0.0,0.002397410923782581,0.0,0.0,g,0.0,0.009919733198235765,0.0,0.0,0.0,0.001800722768857935,0.0,0.0
q,0.0,0.0029035299312959797,0.0,0.0,0.0,0.0024298154474452945,0.0,0.0,g,0.0,0.013022711531170681,0.0,0.0,0.0,0.000600250466512629,0.0,0.0
q,0.0,0.003184711897199117,0.0,0.0,0.0,0.002085985116953102,0.0,0.0,g,0.0,0.014283849427582738,0.0,0.0,0.0,0.000830284921763234,0.0,0.0
q,0.0,0.0010401689620076655,0.0,0.0,0.0,0.0010739557757292774,0.0,0.0,g,0.0,0.004665293851424834,0.0,0.0,0.0,0.009263671158141302,0.0,0.0
q,0.0,0.00030230341699060206,0.0,0.0,0.0,0.002184345732605543,0.0,0.0,g,0.0,0.0013558703672803501,0.0,0.0,0.0,0.0034349977239228426,0.0,0.0
q,0.0,0.0020407371502396653,0.0,0.0,0.0,0.0005834128252561743,0.0,0.0,g,0.0,0.009152973052580976,0.0,0.0,0.0,0.0016559555547482011,0.0,0.0
q,0.0,0.0015760966394209666,0.0,0.0,0.0,0.0009144049876079613,0.0,0.0,g,0.0,0.0070689995853651716,0.0,0.0,0.0,0.0008203429855769013,0.0,0.0
q,0.0,0.0010417294590293474,0.0,0.0,0.0,0.0004034658253086777,0.0,0.0,g,0.0,0.0046722928846841425,0.0,0.0,0.0,0.0020466916013146593,0.0,0.0
q,0.0,0.002523121666731347,0.0,0.0,0.0,0.000415377543856163,0.0,0.0,g,0.0,0.011316530706202496,0.0,0.0,0.0,0.0017172429989263764,0.0,0.0
q,0.0,0.0017443816162043373,0.0,0.0,0.0,0.0004029231615813901,0.0,0.0,g,0.0,0.007823779718353706,0.0,0.0,0.0,0.00312709851323535,0.0,0.0
q,0.0,0.0007188106169802311,0.0,0.0,0.0,0.00019862469373499794,0.0,0.0,g,0.0,0.003223959639464866,0.0,0.0,0.0,0.0008655403730584675,0.0,0.0
q,0.0,0.0017157014263221096,0.0,0.0,0.0,0.0009399718128840703,0.0,0.0,g,0.0,0.007695145315288041,0.0,0.0,0.0,0.002843561666454759,0.0,0.0
q,0.0,0.001547771160906465,0.0,0.0,0.0,0.0006319987011535258,0.0,0.0,g,0.0,0.006941956109181054,0.0,0.0,0.0,0.002334073241104781,0.0,0.0
q,0.0,0.0016108029676644153,0.0,0.0,0.0,0.0018131590962792085,0.0,0.0,g,0.0,0.007224662007215579,0.0,0.0,0.0,0.005923967072016565,0.0,0.0
q,0.0,0.0010038911625596808,0.0,0.0,0.0,0.00035886570196214107,0.0,0.0,g,0.0,0.004502583175669522,0.0,0.0,0.0,8.512485903770795e-06,0.0,0.0
q,0.0,0.0002762203734226684,0.0,0.0,0.0,0.0012106565195947189,0.0,0.0,g,0.0,0.001238884505147874,0.0,0.0,0.0,0.003330322420753897,0.0,0.0
q,0.0,6.393531079062348e-05,0.0,0.0,0.0,0.0005896766749247731,0.0,0.0,g,0.0,0.00028675823180175294,0.0,0.0,0.0,0.001264966936093164,0.0,0.0
q,0.0,0.0008697153469500105,0.0,0.0,0.0,0.00011324797475009002,0.0,0.0,g,0.0,0.0039007870921126467,0.0,0.0,0.0,0.002039437751548648,0.0,0.0
q,0.0,0.0005157394034123464,0.0,0.0,0.0,0.00016063187206621227,0.0,0.0,g,0.0,0.0023131586843670865,0.0,0.0,0.0,0.002652082376796712,0.0,0.0
q,0.0,0.00014544645988900928,0.0,0.0,0.0,0.001438520597285435,0.0,0.0,g,0.0,0.000652346397379544,0.0,0.0,0.0,0.0008884047209761006,0.0,0.0
q,0.0,0.0008249210171552626,0.0,0.0,0.0,0.0014738132330600964,0.0,0.0,g,0.0,0.003699878663767711,0.0,0.0,0.0,0.0011150703541653664,0.0,0.0
q,0.0,0.0008332255106836828,0.0,0.0,0.0,0.0009809764420304207,0.0,0.0,g,0.0,0.0037371254034921225,0.0,0.0,0.0,0.0025521988701522197,0.0,0.0
q,0.0,0.0013484625568345177,0.0,0.0,0.0,0.0016837559694725251,0.0,0.0,g,0.0,0.006048030949831695,0.0,0.0,0.0,0.0028712520322013435,0.0,0.0
q,0.0,0.0019328850904333332,0.0,0.0,0.0,0.0029765072081784673,0.0,0.0,g,0.0,0.008669242457018125,0.0,0.0,0.0,0.002468096605910429,0.0,0.0
q,0.0,0.002226545660995706,0.0,0.0,0.0,0.0018416117234465734,0.0,0.0,g,0.0,0.009986348527561022,0.0,0.0,0.0,0.0018339201079871498,0.0,0.0
q,0.0,0.003046546010466677,0.0,0.0,0.0,0.001999950948536538,0.0,0.0,g,0.0,0.013664157353128384,0.0,0.0,0.0,8.059479899463762e-05,0.0,0.0
q,0.0,0.002625108564570943,0.0,0.0,0.0,0.0016198090524741637,0.0,0.0,g,0.0,0.011773955283166056,0.0,0.0,0.0,0.002078371207727865,0.0,0.0
q,0.0,0.002252409605805479,0.0,0.0,0.0,0.0017961618544718103,0.0,0.0,g,0.0,0.010102351703104438,0.0,0.0,0.0,0.0011120812575561578,0.0,0.0
q,0.0,0.0018936891227426048,0.0,0.0,0.0,0.00020925821523314764,0.0,0.0,g,0.0,0.008493443414990136,0.0,0.0,0.0,0.00534304231337044,0.0,0.0
q,0.0,0.0016245094083339809,0.0,0.0,0.0,0.0012276630459536492,0.0,0.0,g,0.0,0.007286137186456848,0.0,0.0,0.0,0.0012719033494258056,0.0,0.0
q,0.0,0.0018045692824828364,0.0,0.0,0.0,0.0006378049717084694,0.0,0.0,g,0.0,0.00809372927431691,0.0,0.0,0.0,0.0028135158764623705,0.0,0.0
q,0.0,0.0012969791921612515,0.0,0.0,0.0,0.0006039773121933175,0.0,0.0,g,0.0,0.0058171213251133475,0.0,0.0,0.0,0.001808642149161828,0.0,0.0
q,0.0,0.0011027155974585303,0.0,0.0,0.0,0.001646046242902089,0.0,0.0,g,0.0,0.004945823692685432,0.0,0.0,0.0,0.002657109266067083,0.0,0.0
q,0.0,0.0012093100716960032,0.0,0.0,0.0,0.00013820431120179638,0.0,0.0,g,0.0,0.005423913852476495,0.0,0.0,0.0,0.001299215435822773,0.0,0.0
q,0.0,0.0013230193591763349,0.0,0.0,0.0,0.0008427278599125775,0.0,0.0,g,0.0,0.005933914880297944,0.0,0.0,0.0,0.0007607749567975775,0.0,0.0
q,0.0,0.0007634639038914741,0.0,0.0,0.0,0.0003416334445194712,0.0,0.0,g,0.0,0.0034242354720284765,0.0,0.0,0.0,0.000589767535193797,0.0,0.0
q,0.0,0.00013487128603407767,0.0,0.0,0.0,0.0005526058754028496,0.0,0.0,g,0.0,0.0006049153593797596,0.0,0.0,0.0,0.0008450903654675761,0.0,0.0
q,0.0,0.00011974158999337276,0.0,0.0,0.0,0.00021009962576422282,0.0,0.0,g,0.0,0.0005370566936333861,0.0,0.0,0.0,0.0014367994257774418,0.0,0.0
q,0.0,0.0001758874008522887,0.0,0.0,0.0,0.0001450338554384372,0.0,0.0,g,0.0,0.0007888779993545187,0.0,0.0,0.0,0.00032762546252788644,0.0,0.0
q,0.0,1.9153084347262838e-05,0.0,0.0,0.0,6.523891837438134e-05,0.0,0.0,g,0.0,8.590408857099498e-05,0.0,0.0,0.0,0.00020663933352044845,0.0,0.0
q,0.0,4.989013978112932e-06,0.0,0.0,0.0,6.622206462409936e-06,0.0,0.0,g,0.0,2.2376380267911903e-05,0.0,0.0,0.0,3.9220213471160196e-05,0.0,0.0
q,0.0,2.592061850504514e-06,0.0,0.0,0.0,1.0565401631403488e-06,0.0,0.0,g,0.0,1.1625736447981456e-05,0.0,0.0,0.0,6.206650208225824e-06,0.0,0.0
q,0.0,0.0,0.0,0.0,0.0,1.647524477855153e-07,0.0,0.0,g,0.0,0.0,0.0,0.0,0.0,7.478417898786603e-07,0.0,0.0
q,0.0,0.0,0.0,0.0,0.0,0.0,0.0,0.0,g,0.0,0.0,0.0,0.0,0.0,0.0,0.0,0.0
q,0.0,0.0,0.0,0.0,0.0,0.0,0.0,0.0,g,0.0,0.0,0.0,0.0,0.0,0.0,0.0,0.0
q,0.0,0.0,0.0,0.0,0.0,0.0,0.0,0.0,g,0.0,0.0,0.0,0.0,0.0,0.0,0.0,0.0
q,0.0,0.0,0.0,0.0,0.0,0.0,0.0,0.0,g,0.0,0.0,0.0,0.0,0.0,0.0,0.0,0.0
q,0.0,0.0,0.0,0.0,0.0,0.0,0.0,0.0,g,0.0,0.0,0.0,0.0,0.0,0.0,0.0,0.0
q,0.0,0.0,0.0,0.0,0.0,0.0,0.0,0.0,g,0.0,0.0,0.0,0.0,0.0,0.0,0.0,0.0
